<svg width="70" height="24" viewBox="0 0 70 24" fill="none" xmlns="http://www.w3.org/2000/svg">
<path d="M0.933105 0.3479H6.3188L9.88334 10.1421H10.1276L16.9125 0.3479H22.2982L11.5712 15.0503L10.2276 23.0899H5.45264L6.79629 15.0503L0.933105 0.3479Z" fill="black"/>
<path d="M29.42 0.3479L25.6444 23.0899H20.8362L24.6117 0.3479H29.42Z" fill="black"/>
<path d="M29.2877 23.0899L33.0632 0.3479H37.8715L36.2169 10.3753H36.5167L46.3553 0.3479H52.1186L42.0246 10.5307L48.443 23.0899H42.6909L38.0492 13.7399L35.1842 16.6493L34.096 23.0899H29.2877Z" fill="black"/>
<path d="M50.5344 23.0899L54.31 0.3479H69.6342L68.9679 4.31221H58.4519L57.5636 9.73121H67.2911L66.6249 13.6955H56.8973L56.0089 19.1256H66.5693L65.9031 23.0899H50.5344Z" fill="black"/>
</svg>
