<mxfile host="app.diagrams.net" modified="2023-07-10T12:26:00.888Z" agent="Mozilla/5.0 (Windows NT 10.0; Win64; x64) AppleWebKit/537.36 (KHTML, like Gecko) Chrome/114.0.0.0 Safari/537.36" etag="s6HooBkW8l4FgRxUEFrQ" version="21.3.2" type="device" pages="3">
  <diagram name="Register" id="8vzLbUdlU8TRABFUa40M">
    <mxGraphModel dx="3148" dy="1655" grid="1" gridSize="10" guides="1" tooltips="1" connect="1" arrows="1" fold="1" page="1" pageScale="1" pageWidth="1100" pageHeight="850" background="none" math="0" shadow="0">
      <root>
        <mxCell id="3wBsXYShM5oElRlNJkEA-0" />
        <mxCell id="3wBsXYShM5oElRlNJkEA-1" parent="3wBsXYShM5oElRlNJkEA-0" />
        <mxCell id="3wBsXYShM5oElRlNJkEA-2" value="" style="whiteSpace=wrap;html=1;rounded=0;shadow=0;labelBackgroundColor=none;strokeColor=#000000;strokeWidth=1;fillColor=none;fontFamily=Verdana;fontSize=12;fontColor=#000000;align=center;comic=1;" vertex="1" parent="3wBsXYShM5oElRlNJkEA-1">
          <mxGeometry x="20" y="20" width="1060" height="810" as="geometry" />
        </mxCell>
        <mxCell id="3wBsXYShM5oElRlNJkEA-3" value="LOGO" style="whiteSpace=wrap;html=1;rounded=0;shadow=0;labelBackgroundColor=none;strokeWidth=1;fontFamily=Verdana;fontSize=28;align=center;comic=1;" vertex="1" parent="3wBsXYShM5oElRlNJkEA-1">
          <mxGeometry x="40" y="60" width="190" height="50" as="geometry" />
        </mxCell>
        <mxCell id="3wBsXYShM5oElRlNJkEA-4" value="Topic 1" style="text;html=1;points=[];align=left;verticalAlign=top;spacingTop=-4;fontSize=14;fontFamily=Verdana" vertex="1" parent="3wBsXYShM5oElRlNJkEA-1">
          <mxGeometry x="780" y="75" width="60" height="20" as="geometry" />
        </mxCell>
        <mxCell id="3wBsXYShM5oElRlNJkEA-5" value="Topic 2" style="text;html=1;points=[];align=left;verticalAlign=top;spacingTop=-4;fontSize=14;fontFamily=Verdana" vertex="1" parent="3wBsXYShM5oElRlNJkEA-1">
          <mxGeometry x="860" y="75" width="60" height="20" as="geometry" />
        </mxCell>
        <mxCell id="3wBsXYShM5oElRlNJkEA-6" value="Topic 3" style="text;html=1;points=[];align=left;verticalAlign=top;spacingTop=-4;fontSize=14;fontFamily=Verdana" vertex="1" parent="3wBsXYShM5oElRlNJkEA-1">
          <mxGeometry x="930" y="75" width="60" height="20" as="geometry" />
        </mxCell>
        <mxCell id="3wBsXYShM5oElRlNJkEA-7" value="Topic 4" style="text;html=1;points=[];align=left;verticalAlign=top;spacingTop=-4;fontSize=14;fontFamily=Verdana" vertex="1" parent="3wBsXYShM5oElRlNJkEA-1">
          <mxGeometry x="1000" y="75" width="60" height="20" as="geometry" />
        </mxCell>
        <mxCell id="3wBsXYShM5oElRlNJkEA-8" value="" style="line;strokeWidth=1;html=1;rounded=0;shadow=0;labelBackgroundColor=none;fillColor=none;fontFamily=Verdana;fontSize=14;fontColor=#000000;align=center;comic=1;" vertex="1" parent="3wBsXYShM5oElRlNJkEA-1">
          <mxGeometry x="20" y="140" width="1060" height="10" as="geometry" />
        </mxCell>
        <mxCell id="3wBsXYShM5oElRlNJkEA-9" value="" style="strokeWidth=1;shadow=0;dashed=0;align=center;html=1;shape=mxgraph.mockup.forms.rrect;rSize=0;strokeColor=#999999;fillColor=#ffffff;" vertex="1" parent="3wBsXYShM5oElRlNJkEA-1">
          <mxGeometry x="390" y="230" width="320" height="480" as="geometry" />
        </mxCell>
        <mxCell id="3wBsXYShM5oElRlNJkEA-10" value="Register" style="strokeWidth=1;shadow=0;dashed=0;align=center;html=1;shape=mxgraph.mockup.forms.anchor;fontSize=12;fontColor=#666666;align=left;resizeWidth=1;spacingLeft=0;" vertex="1" parent="3wBsXYShM5oElRlNJkEA-9">
          <mxGeometry width="160" height="20" relative="1" as="geometry">
            <mxPoint x="10" y="10" as="offset" />
          </mxGeometry>
        </mxCell>
        <mxCell id="3wBsXYShM5oElRlNJkEA-11" value="" style="shape=line;strokeColor=#ddeeff;strokeWidth=2;html=1;resizeWidth=1;" vertex="1" parent="3wBsXYShM5oElRlNJkEA-9">
          <mxGeometry width="287.99999999999994" height="10" relative="1" as="geometry">
            <mxPoint x="10" y="30" as="offset" />
          </mxGeometry>
        </mxCell>
        <mxCell id="3wBsXYShM5oElRlNJkEA-12" value="Email" style="strokeWidth=1;shadow=0;dashed=0;align=center;html=1;shape=mxgraph.mockup.forms.anchor;fontSize=12;fontColor=#666666;align=left;resizeWidth=1;spacingLeft=0;" vertex="1" parent="3wBsXYShM5oElRlNJkEA-9">
          <mxGeometry width="160" height="20" relative="1" as="geometry">
            <mxPoint x="10" y="40" as="offset" />
          </mxGeometry>
        </mxCell>
        <mxCell id="3wBsXYShM5oElRlNJkEA-13" value="johndoe@gmail.com" style="strokeWidth=1;shadow=0;dashed=0;align=center;html=1;shape=mxgraph.mockup.forms.rrect;rSize=0;strokeColor=#999999;fontColor=#666666;align=left;spacingLeft=5;resizeWidth=1;" vertex="1" parent="3wBsXYShM5oElRlNJkEA-9">
          <mxGeometry width="240" height="25" relative="1" as="geometry">
            <mxPoint x="10" y="60" as="offset" />
          </mxGeometry>
        </mxCell>
        <mxCell id="3wBsXYShM5oElRlNJkEA-14" value="Password:" style="strokeWidth=1;shadow=0;dashed=0;align=center;html=1;shape=mxgraph.mockup.forms.anchor;fontSize=12;fontColor=#666666;align=left;resizeWidth=1;spacingLeft=0;" vertex="1" parent="3wBsXYShM5oElRlNJkEA-9">
          <mxGeometry width="160" height="20" relative="1" as="geometry">
            <mxPoint x="10" y="150" as="offset" />
          </mxGeometry>
        </mxCell>
        <mxCell id="3wBsXYShM5oElRlNJkEA-15" value="********" style="strokeWidth=1;shadow=0;dashed=0;align=center;html=1;shape=mxgraph.mockup.forms.rrect;rSize=0;strokeColor=#999999;fontColor=#666666;align=left;spacingLeft=5;resizeWidth=1;" vertex="1" parent="3wBsXYShM5oElRlNJkEA-9">
          <mxGeometry width="240" height="25" relative="1" as="geometry">
            <mxPoint x="10" y="170" as="offset" />
          </mxGeometry>
        </mxCell>
        <mxCell id="3wBsXYShM5oElRlNJkEA-16" value="Register" style="strokeWidth=1;shadow=0;dashed=0;align=center;html=1;shape=mxgraph.mockup.forms.rrect;rSize=5;strokeColor=none;fontColor=#ffffff;fillColor=#66bbff;fontSize=16;fontStyle=1;" vertex="1" parent="3wBsXYShM5oElRlNJkEA-9">
          <mxGeometry y="1" width="240" height="30" relative="1" as="geometry">
            <mxPoint x="10" y="-200" as="offset" />
          </mxGeometry>
        </mxCell>
        <mxCell id="EcL4SDfGAno5fI8HaNea-0" value="Confirm Password" style="strokeWidth=1;shadow=0;dashed=0;align=center;html=1;shape=mxgraph.mockup.forms.anchor;fontSize=12;fontColor=#666666;align=left;resizeWidth=1;spacingLeft=0;" vertex="1" parent="3wBsXYShM5oElRlNJkEA-9">
          <mxGeometry x="10" y="200" width="160" height="20" as="geometry" />
        </mxCell>
        <mxCell id="EcL4SDfGAno5fI8HaNea-1" value="********" style="strokeWidth=1;shadow=0;dashed=0;align=center;html=1;shape=mxgraph.mockup.forms.rrect;rSize=0;strokeColor=#999999;fontColor=#666666;align=left;spacingLeft=5;resizeWidth=1;" vertex="1" parent="3wBsXYShM5oElRlNJkEA-9">
          <mxGeometry x="10" y="220" width="240" height="25" as="geometry" />
        </mxCell>
        <mxCell id="EcL4SDfGAno5fI8HaNea-2" value="Full Name" style="strokeWidth=1;shadow=0;dashed=0;align=center;html=1;shape=mxgraph.mockup.forms.anchor;fontSize=12;fontColor=#666666;align=left;resizeWidth=1;spacingLeft=0;" vertex="1" parent="3wBsXYShM5oElRlNJkEA-9">
          <mxGeometry x="10" y="94" width="160" height="20" as="geometry" />
        </mxCell>
        <mxCell id="EcL4SDfGAno5fI8HaNea-3" value="johndoe" style="strokeWidth=1;shadow=0;dashed=0;align=center;html=1;shape=mxgraph.mockup.forms.rrect;rSize=0;strokeColor=#999999;fontColor=#666666;align=left;spacingLeft=5;resizeWidth=1;" vertex="1" parent="3wBsXYShM5oElRlNJkEA-9">
          <mxGeometry x="10" y="114" width="240" height="25" as="geometry" />
        </mxCell>
        <mxCell id="kCCvnw50v2U3QoeH5Jh3-0" value="" style="verticalLabelPosition=bottom;verticalAlign=top;html=1;shadow=0;dashed=0;strokeWidth=1;shape=mxgraph.android.phone2;strokeColor=#c0c0c0;" vertex="1" parent="3wBsXYShM5oElRlNJkEA-1">
          <mxGeometry x="1210" y="20" width="420.52" height="820" as="geometry" />
        </mxCell>
        <mxCell id="kCCvnw50v2U3QoeH5Jh3-1" value="" style="strokeWidth=1;shadow=0;dashed=0;align=center;html=1;shape=mxgraph.mockup.forms.rrect;rSize=0;strokeColor=#999999;fillColor=#ffffff;" vertex="1" parent="3wBsXYShM5oElRlNJkEA-1">
          <mxGeometry x="1260.26" y="250" width="320" height="480" as="geometry" />
        </mxCell>
        <mxCell id="kCCvnw50v2U3QoeH5Jh3-2" value="Register" style="strokeWidth=1;shadow=0;dashed=0;align=center;html=1;shape=mxgraph.mockup.forms.anchor;fontSize=12;fontColor=#666666;align=left;resizeWidth=1;spacingLeft=0;" vertex="1" parent="kCCvnw50v2U3QoeH5Jh3-1">
          <mxGeometry width="160" height="20" relative="1" as="geometry">
            <mxPoint x="10" y="10" as="offset" />
          </mxGeometry>
        </mxCell>
        <mxCell id="kCCvnw50v2U3QoeH5Jh3-3" value="" style="shape=line;strokeColor=#ddeeff;strokeWidth=2;html=1;resizeWidth=1;" vertex="1" parent="kCCvnw50v2U3QoeH5Jh3-1">
          <mxGeometry width="287.99999999999994" height="10" relative="1" as="geometry">
            <mxPoint x="10" y="30" as="offset" />
          </mxGeometry>
        </mxCell>
        <mxCell id="kCCvnw50v2U3QoeH5Jh3-4" value="Email" style="strokeWidth=1;shadow=0;dashed=0;align=center;html=1;shape=mxgraph.mockup.forms.anchor;fontSize=12;fontColor=#666666;align=left;resizeWidth=1;spacingLeft=0;" vertex="1" parent="kCCvnw50v2U3QoeH5Jh3-1">
          <mxGeometry width="160" height="20" relative="1" as="geometry">
            <mxPoint x="10" y="40" as="offset" />
          </mxGeometry>
        </mxCell>
        <mxCell id="kCCvnw50v2U3QoeH5Jh3-5" value="johndoe@gmail.com" style="strokeWidth=1;shadow=0;dashed=0;align=center;html=1;shape=mxgraph.mockup.forms.rrect;rSize=0;strokeColor=#999999;fontColor=#666666;align=left;spacingLeft=5;resizeWidth=1;" vertex="1" parent="kCCvnw50v2U3QoeH5Jh3-1">
          <mxGeometry width="240" height="25" relative="1" as="geometry">
            <mxPoint x="10" y="60" as="offset" />
          </mxGeometry>
        </mxCell>
        <mxCell id="kCCvnw50v2U3QoeH5Jh3-6" value="Password:" style="strokeWidth=1;shadow=0;dashed=0;align=center;html=1;shape=mxgraph.mockup.forms.anchor;fontSize=12;fontColor=#666666;align=left;resizeWidth=1;spacingLeft=0;" vertex="1" parent="kCCvnw50v2U3QoeH5Jh3-1">
          <mxGeometry width="160" height="20" relative="1" as="geometry">
            <mxPoint x="10" y="150" as="offset" />
          </mxGeometry>
        </mxCell>
        <mxCell id="kCCvnw50v2U3QoeH5Jh3-7" value="********" style="strokeWidth=1;shadow=0;dashed=0;align=center;html=1;shape=mxgraph.mockup.forms.rrect;rSize=0;strokeColor=#999999;fontColor=#666666;align=left;spacingLeft=5;resizeWidth=1;" vertex="1" parent="kCCvnw50v2U3QoeH5Jh3-1">
          <mxGeometry width="240" height="25" relative="1" as="geometry">
            <mxPoint x="10" y="170" as="offset" />
          </mxGeometry>
        </mxCell>
        <mxCell id="kCCvnw50v2U3QoeH5Jh3-8" value="Register" style="strokeWidth=1;shadow=0;dashed=0;align=center;html=1;shape=mxgraph.mockup.forms.rrect;rSize=5;strokeColor=none;fontColor=#ffffff;fillColor=#66bbff;fontSize=16;fontStyle=1;" vertex="1" parent="kCCvnw50v2U3QoeH5Jh3-1">
          <mxGeometry y="1" width="240" height="30" relative="1" as="geometry">
            <mxPoint x="10" y="-200" as="offset" />
          </mxGeometry>
        </mxCell>
        <mxCell id="kCCvnw50v2U3QoeH5Jh3-9" value="Confirm Password" style="strokeWidth=1;shadow=0;dashed=0;align=center;html=1;shape=mxgraph.mockup.forms.anchor;fontSize=12;fontColor=#666666;align=left;resizeWidth=1;spacingLeft=0;" vertex="1" parent="kCCvnw50v2U3QoeH5Jh3-1">
          <mxGeometry x="10" y="200" width="160" height="20" as="geometry" />
        </mxCell>
        <mxCell id="kCCvnw50v2U3QoeH5Jh3-10" value="********" style="strokeWidth=1;shadow=0;dashed=0;align=center;html=1;shape=mxgraph.mockup.forms.rrect;rSize=0;strokeColor=#999999;fontColor=#666666;align=left;spacingLeft=5;resizeWidth=1;" vertex="1" parent="kCCvnw50v2U3QoeH5Jh3-1">
          <mxGeometry x="10" y="220" width="240" height="25" as="geometry" />
        </mxCell>
        <mxCell id="kCCvnw50v2U3QoeH5Jh3-11" value="Full Name" style="strokeWidth=1;shadow=0;dashed=0;align=center;html=1;shape=mxgraph.mockup.forms.anchor;fontSize=12;fontColor=#666666;align=left;resizeWidth=1;spacingLeft=0;" vertex="1" parent="kCCvnw50v2U3QoeH5Jh3-1">
          <mxGeometry x="10" y="94" width="160" height="20" as="geometry" />
        </mxCell>
        <mxCell id="kCCvnw50v2U3QoeH5Jh3-12" value="johndoe" style="strokeWidth=1;shadow=0;dashed=0;align=center;html=1;shape=mxgraph.mockup.forms.rrect;rSize=0;strokeColor=#999999;fontColor=#666666;align=left;spacingLeft=5;resizeWidth=1;" vertex="1" parent="kCCvnw50v2U3QoeH5Jh3-1">
          <mxGeometry x="10" y="114" width="240" height="25" as="geometry" />
        </mxCell>
        <mxCell id="kCCvnw50v2U3QoeH5Jh3-25" value="LOGO" style="whiteSpace=wrap;html=1;rounded=0;shadow=0;labelBackgroundColor=none;strokeWidth=1;fontFamily=Verdana;fontSize=28;align=center;comic=1;" vertex="1" parent="3wBsXYShM5oElRlNJkEA-1">
          <mxGeometry x="1260.26" y="150" width="190" height="50" as="geometry" />
        </mxCell>
        <mxCell id="kCCvnw50v2U3QoeH5Jh3-26" value="" style="shape=image;html=1;verticalAlign=top;verticalLabelPosition=bottom;labelBackgroundColor=#ffffff;imageAspect=0;aspect=fixed;image=https://cdn4.iconfinder.com/data/icons/flat-black/128/menu.png" vertex="1" parent="3wBsXYShM5oElRlNJkEA-1">
          <mxGeometry x="1480" y="111" width="128" height="128" as="geometry" />
        </mxCell>
        <mxCell id="u1ke46AxoNn8LpsVrcJ0-0" value="" style="whiteSpace=wrap;html=1;rounded=0;shadow=0;labelBackgroundColor=none;strokeColor=#000000;strokeWidth=1;fillColor=none;fontFamily=Verdana;fontSize=12;fontColor=#000000;align=center;comic=1;" vertex="1" parent="3wBsXYShM5oElRlNJkEA-1">
          <mxGeometry x="20" y="20" width="1060" height="810" as="geometry" />
        </mxCell>
        <mxCell id="u1ke46AxoNn8LpsVrcJ0-1" value="" style="verticalLabelPosition=bottom;verticalAlign=top;html=1;shadow=0;dashed=0;strokeWidth=1;shape=mxgraph.android.phone2;strokeColor=#c0c0c0;" vertex="1" parent="3wBsXYShM5oElRlNJkEA-1">
          <mxGeometry x="1210" y="20" width="420.52" height="820" as="geometry" />
        </mxCell>
      </root>
    </mxGraphModel>
  </diagram>
  <diagram name="Product Overview Page" id="pJfz5w0RzmvkNvqZLv5b">
    <mxGraphModel dx="3597" dy="1891" grid="1" gridSize="10" guides="1" tooltips="1" connect="1" arrows="1" fold="1" page="1" pageScale="1" pageWidth="1100" pageHeight="850" background="none" math="0" shadow="0">
      <root>
        <mxCell id="kdkiZc66pSslCaXBVJ3D-0" />
        <mxCell id="kdkiZc66pSslCaXBVJ3D-1" parent="kdkiZc66pSslCaXBVJ3D-0" />
        <mxCell id="kdkiZc66pSslCaXBVJ3D-2" value="" style="whiteSpace=wrap;html=1;rounded=0;shadow=0;labelBackgroundColor=none;strokeColor=#000000;strokeWidth=1;fillColor=none;fontFamily=Verdana;fontSize=12;fontColor=#000000;align=center;comic=1;" vertex="1" parent="kdkiZc66pSslCaXBVJ3D-1">
          <mxGeometry x="20" y="20" width="1060" height="810" as="geometry" />
        </mxCell>
        <mxCell id="kdkiZc66pSslCaXBVJ3D-3" value="LOGO" style="whiteSpace=wrap;html=1;rounded=0;shadow=0;labelBackgroundColor=none;strokeWidth=1;fontFamily=Verdana;fontSize=28;align=center;comic=1;" vertex="1" parent="kdkiZc66pSslCaXBVJ3D-1">
          <mxGeometry x="40" y="60" width="190" height="50" as="geometry" />
        </mxCell>
        <mxCell id="kdkiZc66pSslCaXBVJ3D-4" value="Topic 1" style="text;html=1;points=[];align=left;verticalAlign=top;spacingTop=-4;fontSize=14;fontFamily=Verdana" vertex="1" parent="kdkiZc66pSslCaXBVJ3D-1">
          <mxGeometry x="780" y="75" width="60" height="20" as="geometry" />
        </mxCell>
        <mxCell id="kdkiZc66pSslCaXBVJ3D-5" value="Topic 2" style="text;html=1;points=[];align=left;verticalAlign=top;spacingTop=-4;fontSize=14;fontFamily=Verdana" vertex="1" parent="kdkiZc66pSslCaXBVJ3D-1">
          <mxGeometry x="860" y="75" width="60" height="20" as="geometry" />
        </mxCell>
        <mxCell id="kdkiZc66pSslCaXBVJ3D-6" value="Topic 3" style="text;html=1;points=[];align=left;verticalAlign=top;spacingTop=-4;fontSize=14;fontFamily=Verdana" vertex="1" parent="kdkiZc66pSslCaXBVJ3D-1">
          <mxGeometry x="930" y="75" width="60" height="20" as="geometry" />
        </mxCell>
        <mxCell id="kdkiZc66pSslCaXBVJ3D-7" value="Topic 4" style="text;html=1;points=[];align=left;verticalAlign=top;spacingTop=-4;fontSize=14;fontFamily=Verdana" vertex="1" parent="kdkiZc66pSslCaXBVJ3D-1">
          <mxGeometry x="1000" y="75" width="60" height="20" as="geometry" />
        </mxCell>
        <mxCell id="kdkiZc66pSslCaXBVJ3D-8" value="" style="line;strokeWidth=1;html=1;rounded=0;shadow=0;labelBackgroundColor=none;fillColor=none;fontFamily=Verdana;fontSize=14;fontColor=#000000;align=center;comic=1;" vertex="1" parent="kdkiZc66pSslCaXBVJ3D-1">
          <mxGeometry x="20" y="140" width="1060" height="10" as="geometry" />
        </mxCell>
        <mxCell id="rfsiiM49ujaWiWLtAwoG-29" value="Products" style="text;strokeColor=none;fillColor=none;html=1;fontSize=24;fontStyle=1;verticalAlign=middle;align=center;" vertex="1" parent="kdkiZc66pSslCaXBVJ3D-1">
          <mxGeometry x="70" y="210" width="100" height="40" as="geometry" />
        </mxCell>
        <mxCell id="NpmCp2c9_63B8JlxGknb-0" value="" style="verticalLabelPosition=bottom;verticalAlign=top;html=1;shadow=0;dashed=0;strokeWidth=1;shape=mxgraph.android.phone2;strokeColor=#c0c0c0;" vertex="1" parent="kdkiZc66pSslCaXBVJ3D-1">
          <mxGeometry x="1210" y="20" width="420.52" height="820" as="geometry" />
        </mxCell>
        <mxCell id="ZgCBpc3v41Ed5o6tey3c-0" value="LOGO" style="whiteSpace=wrap;html=1;rounded=0;shadow=0;labelBackgroundColor=none;strokeWidth=1;fontFamily=Verdana;fontSize=28;align=center;comic=1;" vertex="1" parent="kdkiZc66pSslCaXBVJ3D-1">
          <mxGeometry x="1260.26" y="150" width="190" height="50" as="geometry" />
        </mxCell>
        <mxCell id="ZgCBpc3v41Ed5o6tey3c-1" value="" style="shape=image;html=1;verticalAlign=top;verticalLabelPosition=bottom;labelBackgroundColor=#ffffff;imageAspect=0;aspect=fixed;image=https://cdn4.iconfinder.com/data/icons/flat-black/128/menu.png" vertex="1" parent="kdkiZc66pSslCaXBVJ3D-1">
          <mxGeometry x="1480" y="111" width="128" height="128" as="geometry" />
        </mxCell>
        <mxCell id="ZgCBpc3v41Ed5o6tey3c-2" value="Products" style="text;strokeColor=none;fillColor=none;html=1;fontSize=24;fontStyle=1;verticalAlign=middle;align=center;" vertex="1" parent="kdkiZc66pSslCaXBVJ3D-1">
          <mxGeometry x="1260.26" y="250" width="100" height="40" as="geometry" />
        </mxCell>
        <mxCell id="rfsiiM49ujaWiWLtAwoG-19" value="" style="verticalLabelPosition=bottom;shadow=0;dashed=0;align=center;html=1;verticalAlign=top;strokeWidth=1;shape=mxgraph.mockup.graphics.simpleIcon;strokeColor=#999999;fillColor=#ffffff;" vertex="1" parent="kdkiZc66pSslCaXBVJ3D-1">
          <mxGeometry x="70" y="310" width="240" height="117.5" as="geometry" />
        </mxCell>
        <mxCell id="rfsiiM49ujaWiWLtAwoG-20" value="" style="verticalLabelPosition=bottom;shadow=0;dashed=0;align=center;html=1;verticalAlign=top;strokeWidth=1;shape=mxgraph.mockup.graphics.simpleIcon;strokeColor=#999999;fillColor=#ffffff;" vertex="1" parent="kdkiZc66pSslCaXBVJ3D-1">
          <mxGeometry x="430" y="310" width="240" height="117.5" as="geometry" />
        </mxCell>
        <mxCell id="rfsiiM49ujaWiWLtAwoG-21" value="" style="verticalLabelPosition=bottom;shadow=0;dashed=0;align=center;html=1;verticalAlign=top;strokeWidth=1;shape=mxgraph.mockup.graphics.simpleIcon;strokeColor=#999999;fillColor=#ffffff;" vertex="1" parent="kdkiZc66pSslCaXBVJ3D-1">
          <mxGeometry x="790" y="310" width="240" height="117.5" as="geometry" />
        </mxCell>
        <mxCell id="rfsiiM49ujaWiWLtAwoG-22" value="" style="verticalLabelPosition=bottom;shadow=0;dashed=0;align=center;html=1;verticalAlign=top;strokeWidth=1;shape=mxgraph.mockup.graphics.simpleIcon;strokeColor=#999999;fillColor=#ffffff;" vertex="1" parent="kdkiZc66pSslCaXBVJ3D-1">
          <mxGeometry x="70" y="486.25" width="240" height="117.5" as="geometry" />
        </mxCell>
        <mxCell id="rfsiiM49ujaWiWLtAwoG-23" value="" style="verticalLabelPosition=bottom;shadow=0;dashed=0;align=center;html=1;verticalAlign=top;strokeWidth=1;shape=mxgraph.mockup.graphics.simpleIcon;strokeColor=#999999;fillColor=#ffffff;" vertex="1" parent="kdkiZc66pSslCaXBVJ3D-1">
          <mxGeometry x="430" y="486.25" width="240" height="117.5" as="geometry" />
        </mxCell>
        <mxCell id="rfsiiM49ujaWiWLtAwoG-24" value="" style="verticalLabelPosition=bottom;shadow=0;dashed=0;align=center;html=1;verticalAlign=top;strokeWidth=1;shape=mxgraph.mockup.graphics.simpleIcon;strokeColor=#999999;fillColor=#ffffff;" vertex="1" parent="kdkiZc66pSslCaXBVJ3D-1">
          <mxGeometry x="790" y="486.25" width="240" height="117.5" as="geometry" />
        </mxCell>
        <mxCell id="rfsiiM49ujaWiWLtAwoG-25" value="" style="verticalLabelPosition=bottom;shadow=0;dashed=0;align=center;html=1;verticalAlign=top;strokeWidth=1;shape=mxgraph.mockup.graphics.simpleIcon;strokeColor=#999999;fillColor=#ffffff;" vertex="1" parent="kdkiZc66pSslCaXBVJ3D-1">
          <mxGeometry x="70" y="662.5" width="240" height="117.5" as="geometry" />
        </mxCell>
        <mxCell id="rfsiiM49ujaWiWLtAwoG-26" value="" style="verticalLabelPosition=bottom;shadow=0;dashed=0;align=center;html=1;verticalAlign=top;strokeWidth=1;shape=mxgraph.mockup.graphics.simpleIcon;strokeColor=#999999;fillColor=#ffffff;" vertex="1" parent="kdkiZc66pSslCaXBVJ3D-1">
          <mxGeometry x="430" y="662.5" width="240" height="117.5" as="geometry" />
        </mxCell>
        <mxCell id="rfsiiM49ujaWiWLtAwoG-27" value="" style="verticalLabelPosition=bottom;shadow=0;dashed=0;align=center;html=1;verticalAlign=top;strokeWidth=1;shape=mxgraph.mockup.graphics.simpleIcon;strokeColor=#999999;fillColor=#ffffff;" vertex="1" parent="kdkiZc66pSslCaXBVJ3D-1">
          <mxGeometry x="790" y="662.5" width="240" height="117.5" as="geometry" />
        </mxCell>
        <mxCell id="ZgCBpc3v41Ed5o6tey3c-5" value="" style="verticalLabelPosition=bottom;shadow=0;dashed=0;align=center;html=1;verticalAlign=top;strokeWidth=1;shape=mxgraph.mockup.graphics.simpleIcon;strokeColor=#999999;fillColor=#ffffff;" vertex="1" parent="kdkiZc66pSslCaXBVJ3D-1">
          <mxGeometry x="1260.26" y="310" width="319.74" height="190" as="geometry" />
        </mxCell>
        <mxCell id="ZgCBpc3v41Ed5o6tey3c-6" value="" style="verticalLabelPosition=bottom;shadow=0;dashed=0;align=center;html=1;verticalAlign=top;strokeWidth=1;shape=mxgraph.mockup.graphics.simpleIcon;strokeColor=#999999;fillColor=#ffffff;" vertex="1" parent="kdkiZc66pSslCaXBVJ3D-1">
          <mxGeometry x="1260.26" y="530" width="319.74" height="190" as="geometry" />
        </mxCell>
      </root>
    </mxGraphModel>
  </diagram>
  <diagram name="Single Product Page" id="euOjHpOfMIaveoGYIFYg">
    <mxGraphModel dx="3597" dy="1891" grid="1" gridSize="10" guides="1" tooltips="1" connect="1" arrows="1" fold="1" page="1" pageScale="1" pageWidth="1100" pageHeight="850" background="none" math="0" shadow="0">
      <root>
        <mxCell id="bsnYL7400l5fEJyV4rlh-0" />
        <mxCell id="bsnYL7400l5fEJyV4rlh-1" parent="bsnYL7400l5fEJyV4rlh-0" />
        <mxCell id="bsnYL7400l5fEJyV4rlh-2" value="" style="whiteSpace=wrap;html=1;rounded=0;shadow=0;labelBackgroundColor=none;strokeColor=#000000;strokeWidth=1;fillColor=none;fontFamily=Verdana;fontSize=12;fontColor=#000000;align=center;comic=1;" vertex="1" parent="bsnYL7400l5fEJyV4rlh-1">
          <mxGeometry x="20" y="20" width="1060" height="810" as="geometry" />
        </mxCell>
        <mxCell id="bsnYL7400l5fEJyV4rlh-3" value="LOGO" style="whiteSpace=wrap;html=1;rounded=0;shadow=0;labelBackgroundColor=none;strokeWidth=1;fontFamily=Verdana;fontSize=28;align=center;comic=1;" vertex="1" parent="bsnYL7400l5fEJyV4rlh-1">
          <mxGeometry x="40" y="60" width="190" height="50" as="geometry" />
        </mxCell>
        <mxCell id="bsnYL7400l5fEJyV4rlh-4" value="Topic 1" style="text;html=1;points=[];align=left;verticalAlign=top;spacingTop=-4;fontSize=14;fontFamily=Verdana" vertex="1" parent="bsnYL7400l5fEJyV4rlh-1">
          <mxGeometry x="780" y="75" width="60" height="20" as="geometry" />
        </mxCell>
        <mxCell id="bsnYL7400l5fEJyV4rlh-5" value="Topic 2" style="text;html=1;points=[];align=left;verticalAlign=top;spacingTop=-4;fontSize=14;fontFamily=Verdana" vertex="1" parent="bsnYL7400l5fEJyV4rlh-1">
          <mxGeometry x="860" y="75" width="60" height="20" as="geometry" />
        </mxCell>
        <mxCell id="bsnYL7400l5fEJyV4rlh-6" value="Topic 3" style="text;html=1;points=[];align=left;verticalAlign=top;spacingTop=-4;fontSize=14;fontFamily=Verdana" vertex="1" parent="bsnYL7400l5fEJyV4rlh-1">
          <mxGeometry x="930" y="75" width="60" height="20" as="geometry" />
        </mxCell>
        <mxCell id="bsnYL7400l5fEJyV4rlh-7" value="Topic 4" style="text;html=1;points=[];align=left;verticalAlign=top;spacingTop=-4;fontSize=14;fontFamily=Verdana" vertex="1" parent="bsnYL7400l5fEJyV4rlh-1">
          <mxGeometry x="1000" y="75" width="60" height="20" as="geometry" />
        </mxCell>
        <mxCell id="bsnYL7400l5fEJyV4rlh-8" value="" style="line;strokeWidth=1;html=1;rounded=0;shadow=0;labelBackgroundColor=none;fillColor=none;fontFamily=Verdana;fontSize=14;fontColor=#000000;align=center;comic=1;" vertex="1" parent="bsnYL7400l5fEJyV4rlh-1">
          <mxGeometry x="20" y="140" width="1060" height="10" as="geometry" />
        </mxCell>
        <mxCell id="bsnYL7400l5fEJyV4rlh-19" value="&lt;font style=&quot;font-size: 40px;&quot;&gt;Product Title&lt;/font&gt;" style="text;strokeColor=none;fillColor=none;html=1;fontSize=24;fontStyle=1;verticalAlign=middle;align=left;" vertex="1" parent="bsnYL7400l5fEJyV4rlh-1">
          <mxGeometry x="570" y="250" width="270" height="40" as="geometry" />
        </mxCell>
        <mxCell id="zZ1tnXEQndqAm7RsZv0H-2" value="&lt;font style=&quot;font-size: 28px;&quot;&gt;Sub title&lt;/font&gt;" style="text;strokeColor=none;fillColor=none;html=1;fontSize=24;fontStyle=1;verticalAlign=middle;align=left;" vertex="1" parent="bsnYL7400l5fEJyV4rlh-1">
          <mxGeometry x="570" y="300" width="270" height="40" as="geometry" />
        </mxCell>
        <mxCell id="zZ1tnXEQndqAm7RsZv0H-3" value="&lt;span style=&quot;font-size: 28px;&quot;&gt;$9.99&lt;/span&gt;" style="text;strokeColor=none;fillColor=none;html=1;fontSize=24;fontStyle=1;verticalAlign=middle;align=left;" vertex="1" parent="bsnYL7400l5fEJyV4rlh-1">
          <mxGeometry x="570" y="360" width="270" height="40" as="geometry" />
        </mxCell>
        <mxCell id="zZ1tnXEQndqAm7RsZv0H-4" value="&lt;span style=&quot;font-size: 28px;&quot;&gt;&lt;span style=&quot;font-weight: normal;&quot;&gt;Product description&lt;br&gt;goes here&lt;/span&gt;&lt;br&gt;&lt;/span&gt;" style="text;strokeColor=none;fillColor=none;html=1;fontSize=24;fontStyle=1;verticalAlign=middle;align=left;" vertex="1" parent="bsnYL7400l5fEJyV4rlh-1">
          <mxGeometry x="570" y="425" width="270" height="60" as="geometry" />
        </mxCell>
        <mxCell id="zZ1tnXEQndqAm7RsZv0H-5" value="Add to cart" style="rounded=1;fillColor=#0057D8;strokeColor=none;html=1;whiteSpace=wrap;fontColor=#ffffff;align=center;verticalAlign=middle;fontStyle=0;fontSize=12;sketch=0;" vertex="1" parent="bsnYL7400l5fEJyV4rlh-1">
          <mxGeometry x="570" y="530" width="280" height="40" as="geometry" />
        </mxCell>
        <mxCell id="F75dC8ebPFMgxCEGyPFM-0" value="" style="verticalLabelPosition=bottom;verticalAlign=top;html=1;shadow=0;dashed=0;strokeWidth=1;shape=mxgraph.android.phone2;strokeColor=#c0c0c0;" vertex="1" parent="bsnYL7400l5fEJyV4rlh-1">
          <mxGeometry x="1210" y="20" width="420.52" height="820" as="geometry" />
        </mxCell>
        <mxCell id="F75dC8ebPFMgxCEGyPFM-1" value="LOGO" style="whiteSpace=wrap;html=1;rounded=0;shadow=0;labelBackgroundColor=none;strokeWidth=1;fontFamily=Verdana;fontSize=28;align=center;comic=1;" vertex="1" parent="bsnYL7400l5fEJyV4rlh-1">
          <mxGeometry x="1260.26" y="150" width="190" height="50" as="geometry" />
        </mxCell>
        <mxCell id="F75dC8ebPFMgxCEGyPFM-2" value="" style="shape=image;html=1;verticalAlign=top;verticalLabelPosition=bottom;labelBackgroundColor=#ffffff;imageAspect=0;aspect=fixed;image=https://cdn4.iconfinder.com/data/icons/flat-black/128/menu.png" vertex="1" parent="bsnYL7400l5fEJyV4rlh-1">
          <mxGeometry x="1480" y="111" width="128" height="128" as="geometry" />
        </mxCell>
        <mxCell id="ZSbGUex4UesGlsICtWJa-0" value="" style="verticalLabelPosition=bottom;shadow=0;dashed=0;align=center;html=1;verticalAlign=top;strokeWidth=1;shape=mxgraph.mockup.graphics.simpleIcon;strokeColor=#999999;fillColor=#ffffff;" vertex="1" parent="bsnYL7400l5fEJyV4rlh-1">
          <mxGeometry x="70" y="225" width="460" height="385" as="geometry" />
        </mxCell>
        <mxCell id="ZSbGUex4UesGlsICtWJa-1" value="" style="verticalLabelPosition=bottom;shadow=0;dashed=0;align=center;html=1;verticalAlign=top;strokeWidth=1;shape=mxgraph.mockup.graphics.simpleIcon;strokeColor=#999999;fillColor=#ffffff;" vertex="1" parent="bsnYL7400l5fEJyV4rlh-1">
          <mxGeometry x="70" y="630" width="110" height="90" as="geometry" />
        </mxCell>
        <mxCell id="ZSbGUex4UesGlsICtWJa-2" value="" style="verticalLabelPosition=bottom;shadow=0;dashed=0;align=center;html=1;verticalAlign=top;strokeWidth=1;shape=mxgraph.mockup.graphics.simpleIcon;strokeColor=#999999;fillColor=#ffffff;" vertex="1" parent="bsnYL7400l5fEJyV4rlh-1">
          <mxGeometry x="200" y="630" width="110" height="90" as="geometry" />
        </mxCell>
        <mxCell id="ZSbGUex4UesGlsICtWJa-3" value="" style="verticalLabelPosition=bottom;shadow=0;dashed=0;align=center;html=1;verticalAlign=top;strokeWidth=1;shape=mxgraph.mockup.graphics.simpleIcon;strokeColor=#999999;fillColor=#ffffff;" vertex="1" parent="bsnYL7400l5fEJyV4rlh-1">
          <mxGeometry x="330" y="630" width="110" height="90" as="geometry" />
        </mxCell>
        <mxCell id="ZSbGUex4UesGlsICtWJa-4" value="" style="verticalLabelPosition=bottom;shadow=0;dashed=0;align=center;html=1;verticalAlign=top;strokeWidth=1;shape=mxgraph.mockup.graphics.simpleIcon;strokeColor=#999999;fillColor=#ffffff;" vertex="1" parent="bsnYL7400l5fEJyV4rlh-1">
          <mxGeometry x="1260.26" y="250" width="319.74" height="230" as="geometry" />
        </mxCell>
        <mxCell id="ZSbGUex4UesGlsICtWJa-5" value="&lt;font style=&quot;font-size: 40px;&quot;&gt;Product Title&lt;/font&gt;" style="text;strokeColor=none;fillColor=none;html=1;fontSize=24;fontStyle=1;verticalAlign=middle;align=left;" vertex="1" parent="bsnYL7400l5fEJyV4rlh-1">
          <mxGeometry x="1260.26" y="510" width="270" height="40" as="geometry" />
        </mxCell>
        <mxCell id="ZSbGUex4UesGlsICtWJa-6" value="&lt;font style=&quot;font-size: 28px;&quot;&gt;Sub title&lt;/font&gt;" style="text;strokeColor=none;fillColor=none;html=1;fontSize=24;fontStyle=1;verticalAlign=middle;align=left;" vertex="1" parent="bsnYL7400l5fEJyV4rlh-1">
          <mxGeometry x="1260.26" y="560" width="270" height="40" as="geometry" />
        </mxCell>
        <mxCell id="ZSbGUex4UesGlsICtWJa-7" value="&lt;span style=&quot;font-size: 28px;&quot;&gt;$9.99&lt;/span&gt;" style="text;strokeColor=none;fillColor=none;html=1;fontSize=24;fontStyle=1;verticalAlign=middle;align=left;" vertex="1" parent="bsnYL7400l5fEJyV4rlh-1">
          <mxGeometry x="1510" y="563" width="270" height="40" as="geometry" />
        </mxCell>
        <mxCell id="ZSbGUex4UesGlsICtWJa-8" value="Add to cart" style="rounded=1;fillColor=#0057D8;strokeColor=none;html=1;whiteSpace=wrap;fontColor=#ffffff;align=center;verticalAlign=middle;fontStyle=0;fontSize=12;sketch=0;" vertex="1" parent="bsnYL7400l5fEJyV4rlh-1">
          <mxGeometry x="1260.26" y="670" width="319.74" height="63" as="geometry" />
        </mxCell>
      </root>
    </mxGraphModel>
  </diagram>
</mxfile>
